....................
----------------------------------------------------------------------
Ran 20 tests in 0.912s

OK
Name             Stmts   Miss Branch BrPart  Cover   Missing
------------------------------------------------------------
Collatz.py          31      0     12      0   100%
TestCollatz.py      86      0      0      0   100%
------------------------------------------------------------
TOTAL              117      0     12      0   100%
