.........................
----------------------------------------------------------------------
Ran 25 tests in 0.157s

OK
Name             Stmts   Miss Branch BrPart  Cover   Missing
------------------------------------------------------------
Collatz.py          53      0     24      0   100%
TestCollatz.py      96      0      0      0   100%
cache.py             1      0      0      0   100%
------------------------------------------------------------
TOTAL              150      0     24      0   100%
